{
 "actions": [],
 "creation": "2021-03-09 17:13:13.245299",
 "description": "field:category_name",
 "doctype": "DocType",
 "editable_grid": 1,
 "engine": "InnoDB",
 "field_order": [
  "category_name",
  "column_break_4",
  "category_type",
  "column_break_2",
  "category_sub_type",
  "section_break_4",
  "rate",
  "column_break_15",
  "unit",
  "column_break_10",
  "lead_time",
  "section_break_16",
  "definition",
  "schedule_duration",
  "total",
  "qty"
 ],
 "fields": [
  {
   "allow_in_quick_entry": 1,
   "fieldname": "category_type",
   "fieldtype": "Link",
   "in_list_view": 1,
   "label": "Category Type",
   "options": "Category Type",
   "reqd": 1
  },
  {
   "fieldname": "column_break_2",
   "fieldtype": "Column Break"
  },
  {
   "allow_in_quick_entry": 1,
   "fieldname": "category_sub_type",
   "fieldtype": "Link",
   "in_list_view": 1,
   "label": "Category Sub Type",
   "options": "Category Sub Type",
   "reqd": 1
  },
  {
   "fieldname": "column_break_4",
   "fieldtype": "Column Break"
  },
  {
   "fieldname": "section_break_4",
   "fieldtype": "Section Break"
  },
  {
   "allow_in_quick_entry": 1,
   "fieldname": "rate",
   "fieldtype": "Int",
   "label": "Rate"
  },
  {
   "fieldname": "column_break_15",
   "fieldtype": "Column Break"
  },
  {
   "fieldname": "unit",
   "fieldtype": "Link",
   "label": "Unit",
   "options": "Unit Master"
  },
  {
   "fieldname": "column_break_10",
   "fieldtype": "Column Break"
  },
  {
   "allow_in_quick_entry": 1,
   "fieldname": "lead_time",
   "fieldtype": "Int",
   "label": "Lead Time"
  },
  {
   "fieldname": "section_break_16",
   "fieldtype": "Section Break"
  },
  {
   "fieldname": "schedule_duration",
   "fieldtype": "Int",
   "hidden": 1,
   "label": "Schedule duration"
  },
  {
   "fieldname": "total",
   "fieldtype": "Data",
   "hidden": 1,
   "label": "Total"
  },
  {
   "fieldname": "qty",
   "fieldtype": "Int",
   "hidden": 1,
   "label": "Qty"
  },
  {
   "allow_in_quick_entry": 1,
   "fieldname": "definition",
   "fieldtype": "Small Text",
   "label": "Definition "
  },
  {
   "fieldname": "category_name",
   "fieldtype": "Data",
   "label": "Category Name"
  }
 ],
 "index_web_pages_for_search": 1,
 "links": [],
 "modified": "2021-05-14 16:22:05.124671",
 "modified_by": "Administrator",
 "module": "fhts-app",
 "name": "Category Name",
 "owner": "Administrator",
 "permissions": [
  {
   "create": 1,
   "delete": 1,
   "email": 1,
   "export": 1,
   "print": 1,
   "read": 1,
   "report": 1,
   "role": "System Manager",
   "share": 1,
   "write": 1
  },
  {
   "create": 1,
   "delete": 1,
   "email": 1,
   "export": 1,
   "print": 1,
   "read": 1,
   "report": 1,
   "role": "super-admin",
   "share": 1,
   "write": 1
  },
  {
   "create": 1,
   "delete": 1,
   "email": 1,
   "export": 1,
   "print": 1,
   "read": 1,
   "report": 1,
   "role": "master-admin",
   "share": 1,
   "write": 1
  }
 ],
 "sort_field": "modified",
 "sort_order": "DESC",
 "track_changes": 1
}