{
 "actions": [],
 "autoname": "format:{area_name}\u2192{sop_name}",
 "creation": "2021-06-06 18:22:45.138264",
 "doctype": "DocType",
 "editable_grid": 1,
 "engine": "InnoDB",
 "field_order": [
  "area_name",
  "sop_name"
 ],
 "fields": [
  {
   "fieldname": "sop_name",
   "fieldtype": "Link",
   "in_list_view": 1,
   "label": "SOP Name",
   "options": "SOP Master",
   "reqd": 1
  },
  {
   "fieldname": "area_name",
   "fieldtype": "Link",
   "in_list_view": 1,
   "label": "Area Name",
   "options": "Area",
   "reqd": 1
  }
 ],
 "index_web_pages_for_search": 1,
 "links": [],
 "modified": "2021-06-06 20:06:34.276755",
 "modified_by": "Administrator",
 "module": "Project_module",
 "name": "Area SOP List",
 "owner": "Administrator",
 "permissions": [
  {
   "create": 1,
   "delete": 1,
   "email": 1,
   "export": 1,
   "print": 1,
   "read": 1,
   "report": 1,
   "role": "System Manager",
   "share": 1,
   "write": 1
  }
 ],
 "sort_field": "modified",
 "sort_order": "DESC",
 "title_field": "sop_name",
 "track_changes": 1
}