{
 "actions": [],
 "autoname": "field:area_type_name",
 "creation": "2021-04-25 12:33:03.735560",
 "doctype": "DocType",
 "editable_grid": 1,
 "engine": "InnoDB",
 "field_order": [
  "area_type_name",
  "add_sop",
  "comment"
 ],
 "fields": [
  {
   "allow_in_quick_entry": 1,
   "fieldname": "area_type_name",
   "fieldtype": "Data",
   "in_list_view": 1,
   "label": "Area Type Name",
   "reqd": 1,
   "unique": 1
  },
  {
   "fieldname": "add_sop",
   "fieldtype": "Table",
   "label": "Add SOP",
   "options": "Area Type SOPMaster subtable"
  },
  {
   "allow_in_quick_entry": 1,
   "fieldname": "comment",
   "fieldtype": "Small Text",
   "label": "comment"
  }
 ],
 "index_web_pages_for_search": 1,
 "links": [],
 "modified": "2021-04-28 17:15:27.987153",
 "modified_by": "Administrator",
 "module": "Project_module",
 "name": "Area Type",
 "owner": "Administrator",
 "permissions": [
  {
   "create": 1,
   "delete": 1,
   "email": 1,
   "export": 1,
   "print": 1,
   "read": 1,
   "report": 1,
   "role": "System Manager",
   "share": 1,
   "write": 1
  }
 ],
 "sort_field": "modified",
 "sort_order": "DESC",
 "title_field": "area_type_name",
 "track_changes": 1
}